<?xml version="1.0"?>
<font>
  <info face="Harlow Solid Italic" size="32" bold="0" italic="0" charset="" unicode="1" stretchH="100" smooth="1" aa="1" padding="0,0,0,0" spacing="1,1" outline="0"/>
  <common lineHeight="32" base="22" scaleW="256" scaleH="256" pages="1" packed="0" alphaChnl="1" redChnl="0" greenChnl="0" blueChnl="0"/>
  <pages>
    <page id="0" file="Harlow_Solid_Italic_0.tga" />
  </pages>
  <chars count="95">
    <char id="32" x="219" y="24" width="3" height="1" xoffset="-1" yoffset="31" xadvance="6" page="0" chnl="15" />
    <char id="33" x="12" y="91" width="9" height="16" xoffset="1" yoffset="6" xadvance="7" page="0" chnl="15" />
    <char id="34" x="206" y="103" width="11" height="8" xoffset="4" yoffset="5" xadvance="12" page="0" chnl="15" />
    <char id="35" x="22" y="91" width="14" height="15" xoffset="1" yoffset="7" xadvance="12" page="0" chnl="15" />
    <char id="36" x="219" y="49" width="13" height="19" xoffset="1" yoffset="5" xadvance="12" page="0" chnl="15" />
    <char id="37" x="234" y="68" width="15" height="16" xoffset="3" yoffset="6" xadvance="17" page="0" chnl="15" />
    <char id="38" x="23" y="50" width="19" height="21" xoffset="1" yoffset="5" xadvance="20" page="0" chnl="15" />
    <char id="39" x="218" y="103" width="6" height="8" xoffset="4" yoffset="5" xadvance="7" page="0" chnl="15" />
    <char id="40" x="0" y="50" width="11" height="22" xoffset="2" yoffset="4" xadvance="9" page="0" chnl="15" />
    <char id="41" x="12" y="50" width="10" height="22" xoffset="1" yoffset="4" xadvance="9" page="0" chnl="15" />
    <char id="42" x="169" y="105" width="10" height="9" xoffset="4" yoffset="5" xadvance="12" page="0" chnl="15" />
    <char id="43" x="233" y="87" width="12" height="11" xoffset="2" yoffset="9" xadvance="12" page="0" chnl="15" />
    <char id="44" x="246" y="95" width="6" height="5" xoffset="0" yoffset="19" xadvance="6" page="0" chnl="15" />
    <char id="45" x="246" y="101" width="7" height="3" xoffset="0" yoffset="15" xadvance="5" page="0" chnl="15" />
    <char id="46" x="250" y="47" width="5" height="3" xoffset="1" yoffset="19" xadvance="6" page="0" chnl="15" />
    <char id="47" x="239" y="0" width="11" height="22" xoffset="1" yoffset="4" xadvance="10" page="0" chnl="15" />
    <char id="48" x="67" y="90" width="14" height="15" xoffset="1" yoffset="7" xadvance="12" page="0" chnl="15" />
    <char id="49" x="162" y="89" width="10" height="15" xoffset="3" yoffset="7" xadvance="12" page="0" chnl="15" />
    <char id="50" x="110" y="90" width="13" height="15" xoffset="1" yoffset="7" xadvance="12" page="0" chnl="15" />
    <char id="51" x="96" y="90" width="13" height="15" xoffset="1" yoffset="7" xadvance="12" page="0" chnl="15" />
    <char id="52" x="82" y="90" width="13" height="15" xoffset="1" yoffset="7" xadvance="12" page="0" chnl="15" />
    <char id="53" x="52" y="90" width="14" height="15" xoffset="1" yoffset="7" xadvance="12" page="0" chnl="15" />
    <char id="54" x="137" y="89" width="12" height="15" xoffset="1" yoffset="7" xadvance="12" page="0" chnl="15" />
    <char id="55" x="124" y="89" width="12" height="15" xoffset="2" yoffset="7" xadvance="12" page="0" chnl="15" />
    <char id="56" x="37" y="91" width="14" height="15" xoffset="1" yoffset="7" xadvance="12" page="0" chnl="15" />
    <char id="57" x="150" y="89" width="11" height="15" xoffset="3" yoffset="7" xadvance="12" page="0" chnl="15" />
    <char id="58" x="225" y="101" width="6" height="7" xoffset="1" yoffset="15" xadvance="6" page="0" chnl="15" />
    <char id="59" x="246" y="85" width="7" height="9" xoffset="0" yoffset="15" xadvance="6" page="0" chnl="15" />
    <char id="60" x="186" y="89" width="12" height="13" xoffset="0" yoffset="7" xadvance="13" page="0" chnl="15" />
    <char id="61" x="191" y="103" width="14" height="8" xoffset="1" yoffset="10" xadvance="12" page="0" chnl="15" />
    <char id="62" x="173" y="89" width="12" height="13" xoffset="0" yoffset="7" xadvance="13" page="0" chnl="15" />
    <char id="63" x="0" y="92" width="11" height="16" xoffset="2" yoffset="6" xadvance="10" page="0" chnl="15" />
    <char id="64" x="98" y="72" width="19" height="17" xoffset="2" yoffset="5" xadvance="19" page="0" chnl="15" />
    <char id="65" x="66" y="27" width="29" height="22" xoffset="-1" yoffset="5" xadvance="26" page="0" chnl="15" />
    <char id="66" x="58" y="0" width="26" height="26" xoffset="-3" yoffset="5" xadvance="22" page="0" chnl="15" />
    <char id="67" x="201" y="50" width="17" height="20" xoffset="1" yoffset="5" xadvance="15" page="0" chnl="15" />
    <char id="68" x="0" y="0" width="28" height="26" xoffset="-3" yoffset="5" xadvance="23" page="0" chnl="15" />
    <char id="69" x="29" y="0" width="28" height="26" xoffset="-3" yoffset="5" xadvance="20" page="0" chnl="15" />
    <char id="70" x="155" y="27" width="27" height="22" xoffset="-1" yoffset="5" xadvance="21" page="0" chnl="15" />
    <char id="71" x="159" y="0" width="20" height="26" xoffset="0" yoffset="5" xadvance="19" page="0" chnl="15" />
    <char id="72" x="126" y="27" width="28" height="22" xoffset="-1" yoffset="5" xadvance="26" page="0" chnl="15" />
    <char id="73" x="183" y="71" width="13" height="17" xoffset="2" yoffset="5" xadvance="15" page="0" chnl="15" />
    <char id="74" x="180" y="0" width="19" height="26" xoffset="0" yoffset="5" xadvance="19" page="0" chnl="15" />
    <char id="75" x="114" y="50" width="24" height="20" xoffset="2" yoffset="5" xadvance="20" page="0" chnl="15" />
    <char id="76" x="85" y="0" width="26" height="26" xoffset="-3" yoffset="5" xadvance="19" page="0" chnl="15" />
    <char id="77" x="96" y="27" width="29" height="22" xoffset="-1" yoffset="5" xadvance="27" page="0" chnl="15" />
    <char id="78" x="0" y="27" width="32" height="22" xoffset="-1" yoffset="5" xadvance="25" page="0" chnl="15" />
    <char id="79" x="183" y="50" width="17" height="20" xoffset="1" yoffset="5" xadvance="17" page="0" chnl="15" />
    <char id="80" x="183" y="27" width="25" height="22" xoffset="-1" yoffset="5" xadvance="21" page="0" chnl="15" />
    <char id="81" x="163" y="50" width="19" height="20" xoffset="2" yoffset="5" xadvance="18" page="0" chnl="15" />
    <char id="82" x="33" y="27" width="32" height="22" xoffset="-1" yoffset="5" xadvance="23" page="0" chnl="15" />
    <char id="83" x="219" y="0" width="19" height="23" xoffset="1" yoffset="5" xadvance="17" page="0" chnl="15" />
    <char id="84" x="209" y="26" width="25" height="22" xoffset="-1" yoffset="5" xadvance="19" page="0" chnl="15" />
    <char id="85" x="46" y="72" width="25" height="17" xoffset="2" yoffset="5" xadvance="22" page="0" chnl="15" />
    <char id="86" x="72" y="72" width="25" height="17" xoffset="2" yoffset="5" xadvance="21" page="0" chnl="15" />
    <char id="87" x="12" y="73" width="33" height="17" xoffset="2" yoffset="5" xadvance="30" page="0" chnl="15" />
    <char id="88" x="139" y="50" width="23" height="20" xoffset="2" yoffset="5" xadvance="20" page="0" chnl="15" />
    <char id="89" x="112" y="0" width="25" height="26" xoffset="2" yoffset="5" xadvance="23" page="0" chnl="15" />
    <char id="90" x="138" y="0" width="20" height="26" xoffset="-2" yoffset="5" xadvance="17" page="0" chnl="15" />
    <char id="91" x="60" y="50" width="15" height="21" xoffset="1" yoffset="4" xadvance="12" page="0" chnl="15" />
    <char id="92" x="251" y="0" width="4" height="22" xoffset="5" yoffset="4" xadvance="11" page="0" chnl="15" />
    <char id="93" x="43" y="50" width="16" height="21" xoffset="-1" yoffset="4" xadvance="10" page="0" chnl="15" />
    <char id="94" x="65" y="106" width="14" height="9" xoffset="-1" yoffset="5" xadvance="13" page="0" chnl="15" />
    <char id="95" x="0" y="121" width="14" height="3" xoffset="-1" yoffset="23" xadvance="13" page="0" chnl="15" />
    <char id="96" x="15" y="119" width="6" height="3" xoffset="4" yoffset="9" xadvance="13" page="0" chnl="15" />
    <char id="97" x="95" y="106" width="13" height="9" xoffset="0" yoffset="13" xadvance="12" page="0" chnl="15" />
    <char id="98" x="197" y="71" width="12" height="17" xoffset="0" yoffset="5" xadvance="11" page="0" chnl="15" />
    <char id="99" x="180" y="103" width="10" height="9" xoffset="1" yoffset="13" xadvance="10" page="0" chnl="15" />
    <char id="100" x="136" y="71" width="15" height="17" xoffset="0" yoffset="5" xadvance="12" page="0" chnl="15" />
    <char id="101" x="109" y="106" width="11" height="9" xoffset="0" yoffset="13" xadvance="10" page="0" chnl="15" />
    <char id="102" x="200" y="0" width="18" height="25" xoffset="-3" yoffset="5" xadvance="9" page="0" chnl="15" />
    <char id="103" x="118" y="71" width="17" height="17" xoffset="-4" yoffset="13" xadvance="11" page="0" chnl="15" />
    <char id="104" x="168" y="71" width="14" height="17" xoffset="0" yoffset="5" xadvance="13" page="0" chnl="15" />
    <char id="105" x="210" y="89" width="9" height="13" xoffset="0" yoffset="9" xadvance="7" page="0" chnl="15" />
    <char id="106" x="235" y="24" width="17" height="22" xoffset="-7" yoffset="9" xadvance="7" page="0" chnl="15" />
    <char id="107" x="210" y="71" width="12" height="17" xoffset="0" yoffset="5" xadvance="11" page="0" chnl="15" />
    <char id="108" x="223" y="69" width="10" height="17" xoffset="0" yoffset="5" xadvance="7" page="0" chnl="15" />
    <char id="109" x="11" y="109" width="20" height="9" xoffset="0" yoffset="13" xadvance="18" page="0" chnl="15" />
    <char id="110" x="50" y="107" width="14" height="9" xoffset="0" yoffset="13" xadvance="13" page="0" chnl="15" />
    <char id="111" x="121" y="106" width="11" height="9" xoffset="0" yoffset="13" xadvance="10" page="0" chnl="15" />
    <char id="112" x="152" y="71" width="15" height="17" xoffset="-3" yoffset="13" xadvance="11" page="0" chnl="15" />
    <char id="113" x="0" y="73" width="11" height="18" xoffset="0" yoffset="13" xadvance="10" page="0" chnl="15" />
    <char id="114" x="220" y="89" width="12" height="11" xoffset="0" yoffset="11" xadvance="10" page="0" chnl="15" />
    <char id="115" x="0" y="109" width="10" height="11" xoffset="0" yoffset="11" xadvance="9" page="0" chnl="15" />
    <char id="116" x="199" y="89" width="10" height="13" xoffset="0" yoffset="9" xadvance="8" page="0" chnl="15" />
    <char id="117" x="80" y="106" width="14" height="9" xoffset="0" yoffset="13" xadvance="12" page="0" chnl="15" />
    <char id="118" x="133" y="105" width="11" height="9" xoffset="0" yoffset="13" xadvance="9" page="0" chnl="15" />
    <char id="119" x="32" y="107" width="17" height="9" xoffset="0" yoffset="13" xadvance="14" page="0" chnl="15" />
    <char id="120" x="145" y="105" width="11" height="9" xoffset="0" yoffset="13" xadvance="9" page="0" chnl="15" />
    <char id="121" x="233" y="49" width="16" height="18" xoffset="-4" yoffset="13" xadvance="11" page="0" chnl="15" />
    <char id="122" x="157" y="105" width="11" height="9" xoffset="0" yoffset="13" xadvance="10" page="0" chnl="15" />
    <char id="123" x="92" y="50" width="15" height="21" xoffset="1" yoffset="4" xadvance="11" page="0" chnl="15" />
    <char id="124" x="108" y="50" width="5" height="21" xoffset="4" yoffset="5" xadvance="13" page="0" chnl="15" />
    <char id="125" x="76" y="50" width="15" height="21" xoffset="-2" yoffset="4" xadvance="11" page="0" chnl="15" />
    <char id="126" x="232" y="101" width="13" height="5" xoffset="2" yoffset="3" xadvance="17" page="0" chnl="15" />
  </chars>
</font>
